launch_status failed=0 1625211697000000000
launch_status broken=0 1625211697000000000
launch_status passed=0 1625211697000000000
launch_status skipped=0 1625211697000000000
launch_status unknown=0 1625211697000000000
launch_time duration=0 1625211697000000000
launch_time min_duration=0 1625211697000000000
launch_time max_duration=0 1625211697000000000
launch_time sum_duration=0 1625211697000000000
launch_retries retries=0 1625211697000000000
launch_retries run=0 1625211697000000000
