<?xml version="1.0" encoding="utf-8"?>
<!-- Generator: Adobe Illustrator 22.0.1, SVG Export Plug-In . SVG Version: 6.00 Build 0)  -->
<svg version="1.1" id="text" xmlns="http://www.w3.org/2000/svg" xmlns:xlink="http://www.w3.org/1999/xlink" x="0px" y="0px"
	 viewBox="0 0 1000 1000" style="enable-background:new 0 0 1000 1000;" xml:space="preserve">
<style type="text/css">
	.st0{fill-rule:evenodd;clip-rule:evenodd;fill:#323232;}
	.st1{fill-rule:evenodd;clip-rule:evenodd;fill:#FF7558;}
</style>
<path class="st0" d="M389.5,500c19.9,11,31.5,28.8,31.5,49.7c0,18.9-7.9,34.8-22.9,46c-14.8,11.1-36.1,17-61.6,17l-97.7,0V502V498
	V387.3l97.7,0c25.5,0,46.8,5.9,61.6,17c15,11.2,22.9,27.2,22.9,46C421.1,471.2,409.4,489,389.5,500z M269.3,585.5h70.3
	c30.7,0,50.5-14.2,50.5-36.1c0-22.1-21.1-36.4-53.8-36.4h-67V585.5z M339.5,414.5h-70.3V487h67c32.7,0,53.8-14.3,53.8-36.4
	C390,428.7,370.2,414.5,339.5,414.5z"/>
<path class="st0" d="M545.9,484.8c36.8,13.3,74.8,27,74.8,65.8c0,36.6-34.7,62.1-84.3,62.1c-37.1,0-68.5-13.8-87.2-36.1
	c-0.7-0.8-1.2-1.7-1.5-2.6l21.7-18c0.9,0.4,1.6,1,2.3,1.8c15.7,17.5,36.1,27.2,63.3,27.2c32.1,0,54.5-13.8,54.5-33.6
	c0-19.2-21.9-27.8-57.6-40.4c-3.7-1.3-7.4-2.6-11.1-3.9c-24.2-8.9-64.5-23.7-64.5-60.7c0-16.9,8.2-32.2,23.1-42.9
	c14.5-10.5,34.1-16,56.7-16c29.4,0,62.1,10.3,81.7,29.7c1.1,1.1,1.8,2.4,2.2,3.9l-20.9,17.4c-1-0.4-2-1-2.8-1.8
	c-14.5-14.2-39.3-21.3-60.1-21.3c-28.2,0-48.6,12.7-48.6,30.2c0,15.2,16.2,24,46.2,35C537.8,481.8,541.8,483.3,545.9,484.8z"/>
<path class="st0" d="M825.7,439.4c-16.1-15.5-38.3-25.1-62.8-25.1c-49.1,0-88.9,38.4-88.9,85.7c0,47.3,39.8,85.7,88.9,85.7
	c23.7,0,45.2-8.9,61.1-23.5l20.1,20.1c-21.1,19.4-49.7,31.3-81.2,31.3C697.8,613.6,645,562.8,645,500c0-62.8,52.8-113.6,117.9-113.6
	c32.2,0,61.3,12.4,82.6,32.6L825.7,439.4z"/>
<g id="dot">
	<path class="st1" d="M154.5,568.4h44.3v44.3h-44.3V568.4z"/>
</g>
</svg>
