<svg width="1000" height="1000" xmlns="http://www.w3.org/2000/svg">
 <style type="text/css">.st0{fill-rule:evenodd;clip-rule:evenodd;fill:#323232;}
	.st1{fill-rule:evenodd;clip-rule:evenodd;fill:#FF7558;}</style>

 <g>
  <title>background</title>
  <rect fill="none" id="canvas_background" height="402" width="582" y="-1" x="-1"/>
 </g>
 <g>
  <title>Layer 1</title>
  <rect id="svg_7" height="1000" width="1000" y="0" x="0" stroke-opacity="null" stroke-width="null" stroke="null" fill="#ffffff"/>
  <path id="svg_1" d="m389.5,500c19.9,11 31.5,28.8 31.5,49.7c0,18.9 -7.9,34.8 -22.9,46c-14.8,11.1 -36.1,17 -61.6,17l-97.7,0l0,-110.7l0,-4l0,-110.7l97.7,0c25.5,0 46.8,5.9 61.6,17c15,11.2 22.9,27.2 22.9,46c0.1,20.9 -11.6,38.7 -31.5,49.7zm-120.2,85.5l70.3,0c30.7,0 50.5,-14.2 50.5,-36.1c0,-22.1 -21.1,-36.4 -53.8,-36.4l-67,0l0,72.5zm70.2,-171l-70.3,0l0,72.5l67,0c32.7,0 53.8,-14.3 53.8,-36.4c0,-21.9 -19.8,-36.1 -50.5,-36.1z" class="st0"/>
  <path id="svg_2" d="m545.9,484.8c36.8,13.3 74.8,27 74.8,65.8c0,36.6 -34.7,62.1 -84.3,62.1c-37.1,0 -68.5,-13.8 -87.2,-36.1c-0.7,-0.8 -1.2,-1.7 -1.5,-2.6l21.7,-18c0.9,0.4 1.6,1 2.3,1.8c15.7,17.5 36.1,27.2 63.3,27.2c32.1,0 54.5,-13.8 54.5,-33.6c0,-19.2 -21.9,-27.8 -57.6,-40.4c-3.7,-1.3 -7.4,-2.6 -11.1,-3.9c-24.2,-8.9 -64.5,-23.7 -64.5,-60.7c0,-16.9 8.2,-32.2 23.1,-42.9c14.5,-10.5 34.1,-16 56.7,-16c29.4,0 62.1,10.3 81.7,29.7c1.1,1.1 1.8,2.4 2.2,3.9l-20.9,17.4c-1,-0.4 -2,-1 -2.8,-1.8c-14.5,-14.2 -39.3,-21.3 -60.1,-21.3c-28.2,0 -48.6,12.7 -48.6,30.2c0,15.2 16.2,24 46.2,35c4,1.2 8,2.7 12.1,4.2z" class="st0"/>
  <path id="svg_3" d="m825.7,439.4c-16.1,-15.5 -38.3,-25.1 -62.8,-25.1c-49.1,0 -88.9,38.4 -88.9,85.7c0,47.3 39.8,85.7 88.9,85.7c23.7,0 45.2,-8.9 61.1,-23.5l20.1,20.1c-21.1,19.4 -49.7,31.3 -81.2,31.3c-65.1,0 -117.9,-50.8 -117.9,-113.6c0,-62.8 52.8,-113.6 117.9,-113.6c32.2,0 61.3,12.4 82.6,32.6l-19.8,20.4z" class="st0"/>
  <g id="dot">
   <path id="svg_11" d="m154.5,568.4l44.3,0l0,44.3l-44.3,0l0,-44.3z" class="st1"/>
  </g>
 </g>
</svg>